﻿;;;;;;;;;;;;;;;;;;;;;;;;;;;;;;;
;;1990;1991;1992;1993;1994;1995;1996;1997;1998;1999;2000;2001;2002;2003;2004;2005;2006;2007;2008;2009;2010;2011;2012;2013;2014;2015;2016;2017;Evolution 1990-2017;
UE à 28;Territoire; 4,47 ; 4,42 ; 4,27 ; 4,19 ; 4,17 ; 4,22 ; 4,32 ; 4,23 ; 4,23 ; 4,16 ; 4,18 ; 4,25 ; 4,23 ; 4,32 ; 4,33 ; 4,31 ; 4,31 ; 4,26 ; 4,16 ; 3,83 ; 3,94 ; 3,80 ; 3,74 ; 3,65 ; 3,48 ; 3,52 ; 3,50 ;3,52;-21%;
UE à 28;Empreinte; 5,02 ; 5,09 ; 4,84 ; 4,78 ; 4,80 ; 4,89 ; 4,91 ; 4,83 ; 4,91 ; 4,82 ; 4,86 ; 4,89 ; 4,93 ; 5,00 ; 5,12 ; 5,09 ; 5,26 ; 5,20 ; 5,08 ; 4,71 ; 4,83 ; 4,75 ; 4,50 ; 4,36 ; 4,23 ; 4,22 ; 4,20 ;4,25;-15%;
Amérique du Nord;Territoire; 5,90 ; 5,85 ; 5,97 ; 6,09 ; 6,21 ; 6,26 ; 6,48 ; 6,59 ; 6,67 ; 6,77 ; 6,96 ; 6,87 ; 6,92 ; 7,02 ; 7,13 ; 7,17 ; 7,10 ; 7,20 ; 7,00 ; 6,51 ; 6,72 ; 6,62 ; 6,44 ; 6,59 ; 6,63 ; 6,48 ; 6,36 ;6,33;7%;
Amérique du Nord;Empreinte; 5,90 ; 5,87 ; 5,95 ; 6,08 ; 6,21 ; 6,26 ; 6,46 ; 6,62 ; 6,81 ; 6,99 ; 7,26 ; 7,16 ; 7,29 ; 7,37 ; 7,56 ; 7,63 ; 7,63 ; 7,68 ; 7,42 ; 6,89 ; 7,13 ; 7,07 ; 6,92 ; 7,04 ; 7,08 ; 6,91 ; 6,79 ;6,80;15%;
Chine;Territoire; 2,42 ; 2,54 ; 2,66 ; 2,84 ; 3,01 ; 3,27 ; 3,41 ; 3,41 ; 3,27 ; 3,26 ; 3,35 ; 3,43 ; 3,78 ; 4,45 ; 5,13 ; 5,77 ; 6,38 ; 6,86 ; 7,38 ; 7,76 ; 8,50 ; 9,39 ; 9,63 ; 9,80 ; 9,82 ; 9,72 ; 9,70 ;9,84;307%;
Chine;Empreinte; 2,29 ; 2,40 ; 2,48 ; 2,62 ; 2,72 ; 2,94 ; 3,07 ; 2,99 ; 2,85 ; 2,89 ; 2,96 ; 3,11 ; 3,36 ; 3,82 ; 4,33 ; 4,82 ; 5,17 ; 5,56 ; 5,99 ; 6,63 ; 7,23 ; 7,94 ; 8,19 ; 8,31 ; 8,32 ; 8,35 ; 8,47 ;8,55;274%;
Inde;Territoire; 0,62 ; 0,66 ; 0,70 ; 0,72 ; 0,76 ; 0,81 ; 0,88 ; 0,92 ; 0,93 ; 1,00 ; 1,03 ; 1,04 ; 1,05 ; 1,09 ; 1,15 ; 1,21 ; 1,29 ; 1,39 ; 1,55 ; 1,72 ; 1,70 ; 1,81 ; 1,98 ; 1,99 ; 2,20 ; 2,30 ; 2,37 ;2,46;298%;
Inde;Empreinte; 0,62 ; 0,65 ; 0,69 ; 0,71 ; 0,74 ; 0,78 ; 0,82 ; 0,87 ; 0,89 ; 0,96 ; 0,95 ; 0,97 ; 0,96 ; 1,02 ; 1,08 ; 1,12 ; 1,20 ; 1,30 ; 1,43 ; 1,63 ; 1,61 ; 1,68 ; 1,83 ; 1,80 ; 1,99 ; 2,11 ; 2,18 ;2,26;267%;
Afrique;Territoire; 0,51 ; 0,53 ; 0,52 ; 0,56 ; 0,56 ; 0,59 ; 0,60 ; 0,64 ; 0,65 ; 0,65 ; 0,72 ; 0,71 ; 0,70 ; 0,78 ; 0,83 ; 0,83 ; 0,87 ; 0,90 ; 0,94 ; 0,94 ; 0,96 ; 1,00 ; 0,98 ; 0,99 ; 1,05 ; 1,03 ; 1,07 ;1,08;111%;
Afrique;Empreinte; 0,43 ; 0,46 ; 0,45 ; 0,47 ; 0,47 ; 0,49 ; 0,49 ; 0,52 ; 0,54 ; 0,57 ; 0,61 ; 0,61 ; 0,61 ; 0,66 ; 0,70 ; 0,71 ; 0,74 ; 0,79 ; 0,84 ; 0,85 ; 0,85 ; 0,89 ; 0,91 ; 0,95 ; 0,99 ; 0,98 ; 1,01 ;1,00;130%;
;;;;;;;;;;;;;;;;;;;;;;;;;;;;;;;