﻿Pays;Colonne2;Country;2005;2018;Objectif 2020;2018%;Colonne4;Colonne5
Suède;SE;Sweden;41%;14%;49%;55%;44%;-26,8%
Lettonie;LV;Latvia;32%;8%;40%;40%;36%;-24,2%
Finlande;FI;Finland;29%;12%;38%;41%;33%;-16,5%
Autriche;AT;Austria;24%;9%;34%;33%;28%;-15,3%
Portugal;PT;Portugal;20%;11%;31%;30%;25%;-8,7%
Danemark;DK;Denmark;16%;20%;30%;36%;23%;3,8%
Estonie;EE;Estonia;17%;13%;25%;30%;21%;-4,8%
Slovénie;SI;Slovenia;16%;5%;25%;21%;20%;-10,9%
Roumanie;RO;Romania;18%;6%;24%;24%;21%;-11,3%
France;FR;France;10%;7%;23%;17%;16%;-2,6%
Lituanie;LT;Lithuania;17%;8%;23%;24%;19%;-9,1%
Croatie;ES;Croatia;24%;4%;20%;28%;14%;-19,4%
Espagne;HR;Spain;8%;9%;20%;17%;16%;0,6%
Allemagne;DE;Germany;7%;9%;18%;16%;11%;2,1%
Grèce;EL;Greece;7%;11%;18%;18%;12%;3,4%
Italie;IT;Italy;8%;10%;17%;18%;11%;2,7%
Bulgarie;BG;Bulgaria;9%;11%;16%;21%;12%;2,2%
Irlande;IE;Ireland;3%;8%;16%;11%;9%;5,4%
Pologne;PL;Poland;7%;4%;15%;11%;11%;-2,5%
Pays-Bas;NL;Netherlands;2%;5%;14%;7%;8%;2,4%
Slovaquie;SK;Slovakia;6%;6%;14%;12%;10%;-0,8%
Belgique;BE;Belgium;2%;7%;13%;9%;7%;4,8%
Chypre;CZ;Cyprus;7%;8%;13%;15%;9%;0,9%
République Tchèque;CY;Czechia;3%;11%;13%;14%;7%;7,6%
Hongrie;HU;Hungary;7%;6%;13%;12%;8%;-1,4%
Luxembourg;LU;Luxembourg;1%;8%;11%;9%;5%;6,3%
Malte;MT;Malta;0%;8%;10%;8%;5%;7,7%
Union Européenne - 27;UE;EU (27 countries);10%;9%;20%;19%;14%;-1,6%