﻿;;;;;;;;;;;
;;Am. Nord 13,9%;Japon, Corée du Sud, Australie et Nouvelle Zélande 5,7%;Europe et ex URSS hors UE 8,2%;Amérique centrale et du Sud 10,9%;Chine 24,3%;UE 28 8,9%;Moyen-orient 4,6%;Afrique 10,8%;Autres Asie et Océanie 6,9%;Inde 5,7%
1;;21,12196088;0;0;0;0;0;0;0;0;0
2;;21,12196088;0;0;0;0;0;0;0;0;0
3;;21,12196088;0;0;0;0;0;0;0;0;0
4;;21,12196088;0;0;0;0;0;0;0;0;0
5;;21,12196088;0;0;0;0;0;0;0;0;0
6;;21,12196088;0;0;0;0;0;0;0;0;0
7;0;21,12196088;0;0;0;0;0;0;0;0;0
8;0;21,12196088;0;0;0;0;0;0;0;0;0
9;0;21,12196088;0;0;0;0;0;0;0;0;0
10;0;21,12196088;0;0;0;0;0;0;0;0;0
11;0;21,12196088;0;0;0;0;0;0;0;0;0
12;0;21,12196088;0;0;0;0;0;0;0;0;0
13;0;21,12196088;0;0;0;0;0;0;0;0;0
14;0;21,12196088;0;0;0;0;0;0;0;0;0
15;0;21,12196088;0;0;0;0;0;0;0;0;0
16;0;21,12196088;0;0;0;0;0;0;0;0;0
17;0;21,12196088;0;0;0;0;0;0;0;0;0
18;0;21,12196088;0;0;0;0;0;0;0;0;0
19;0;21,12196088;0;0;0;0;0;0;0;0;0
20;0;21,12196088;0;0;0;0;0;0;0;0;0
21;0;21,12196088;0;0;0;0;0;0;0;0;0
22;0;21,12196088;0;0;0;0;0;0;0;0;0
23;0;21,12196088;0;0;0;0;0;0;0;0;0
24;0;21,12196088;0;0;0;0;0;0;0;0;0
25;0;21,12196088;0;0;0;0;0;0;0;0;0
26;0;21,12196088;0;0;0;0;0;0;0;0;0
27;0;21,12196088;0;0;0;0;0;0;0;0;0
28;0;21,12196088;0;0;0;0;0;0;0;0;0
29;0;21,12196088;0;0;0;0;0;0;0;0;0
30;0;21,12196088;0;0;0;0;0;0;0;0;0
31;0;21,12196088;0;0;0;0;0;0;0;0;0
32;0;21,12196088;0;0;0;0;0;0;0;0;0
33;0;21,12196088;0;0;0;0;0;0;0;0;0
34;0;21,12196088;0;0;0;0;0;0;0;0;0
35;0;21,12196088;0;0;0;0;0;0;0;0;0
36;0;0;14,59517563;0;0;0;0;0;0;0;0
37;0;0;14,59517563;0;0;0;0;0;0;0;0
38;0;0;14,59517563;0;0;0;0;0;0;0;0
39;0;0;14,59517563;0;0;0;0;0;0;0;0
40;0;0;14,59517563;0;0;0;0;0;0;0;0
41;0;0;14,59517563;0;0;0;0;0;0;0;0
42;0;0;14,59517563;0;0;0;0;0;0;0;0
43;0;0;14,59517563;0;0;0;0;0;0;0;0
44;0;0;14,59517563;0;0;0;0;0;0;0;0
45;0;0;14,59517563;0;0;0;0;0;0;0;0
46;0;0;14,59517563;0;0;0;0;0;0;0;0
47;0;0;14,59517563;0;0;0;0;0;0;0;0
48;0;0;14,59517563;0;0;0;0;0;0;0;0
49;0;0;14,59517563;0;0;0;0;0;0;0;0
50;0;0;14,59517563;0;0;0;0;0;0;0;0
51;0;0;14,59517563;0;0;0;0;0;0;0;0
52;0;0;14,59517563;0;0;0;0;0;0;0;0
53;0;0;14,59517563;0;0;0;0;0;0;0;0
54;0;0;14,59517563;0;0;0;0;0;0;0;0
55;0;0;14,59517563;0;0;0;0;0;0;0;0
56;0;0;0;14,11931348;0;0;0;0;0;0;0
57;0;0;0;14,11931348;0;0;0;0;0;0;0
58;0;0;0;14,11931348;0;0;0;0;0;0;0
59;0;0;0;14,11931348;0;0;0;0;0;0;0
60;0;0;0;14,11931348;0;0;0;0;0;0;0
61;0;0;0;14,11931348;0;0;0;0;0;0;0
62;0;0;0;14,11931348;0;0;0;0;0;0;0
63;0;0;0;14,11931348;0;0;0;0;0;0;0
64;0;0;0;14,11931348;0;0;0;0;0;0;0
65;0;0;0;14,11931348;0;0;0;0;0;0;0
66;0;0;0;14,11931348;0;0;0;0;0;0;0
67;0;0;0;14,11931348;0;0;0;0;0;0;0
68;0;0;0;14,11931348;0;0;0;0;0;0;0
69;0;0;0;14,11931348;0;0;0;0;0;0;0
70;0;0;0;14,11931348;0;0;0;0;0;0;0
71;0;0;0;14,11931348;0;0;0;0;0;0;0
72;0;0;0;14,11931348;0;0;0;0;0;0;0
73;0;0;0;14,11931348;0;0;0;0;0;0;0
74;0;0;0;14,11931348;0;0;0;0;0;0;0
75;0;0;0;14,11931348;0;0;0;0;0;0;0
76;0;0;0;14,11931348;0;0;0;0;0;0;0
77;0;0;0;14,11931348;0;0;0;0;0;0;0
78;0;0;0;14,11931348;0;0;0;0;0;0;0
79;0;0;0;14,11931348;0;0;0;0;0;0;0
80;0;0;0;14,11931348;0;0;0;0;0;0;0
81;0;0;0;14,11931348;0;0;0;0;0;0;0
82;0;0;0;14,11931348;0;0;0;0;0;0;0
83;0;0;0;14,11931348;0;0;0;0;0;0;0
84;0;0;0;14,11931348;0;0;0;0;0;0;0
85;0;0;0;14,11931348;0;0;0;0;0;0;0
86;0;0;0;14,11931348;0;0;0;0;0;0;0
87;0;0;0;0;9,463605213;0;0;0;0;0;0
88;0;0;0;0;9,463605213;0;0;0;0;0;0
89;0;0;0;0;9,463605213;0;0;0;0;0;0
90;0;0;0;0;9,463605213;0;0;0;0;0;0
91;0;0;0;0;9,463605213;0;0;0;0;0;0
92;0;0;0;0;9,463605213;0;0;0;0;0;0
93;0;0;0;0;9,463605213;0;0;0;0;0;0
94;0;0;0;0;9,463605213;0;0;0;0;0;0
95;0;0;0;0;9,463605213;0;0;0;0;0;0
96;0;0;0;0;9,463605213;0;0;0;0;0;0
97;0;0;0;0;9,463605213;0;0;0;0;0;0
98;0;0;0;0;9,463605213;0;0;0;0;0;0
99;0;0;0;0;9,463605213;0;0;0;0;0;0
100;1;0;0;0;9,463605213;0;0;0;0;0;0
101;1;0;0;0;9,463605213;0;0;0;0;0;0
102;1;0;0;0;9,463605213;0;0;0;0;0;0
103;1;0;0;0;9,463605213;0;0;0;0;0;0
104;1;0;0;0;9,463605213;0;0;0;0;0;0
105;1;0;0;0;9,463605213;0;0;0;0;0;0
106;1;0;0;0;9,463605213;0;0;0;0;0;0
107;1;0;0;0;9,463605213;0;0;0;0;0;0
108;1;0;0;0;9,463605213;0;0;0;0;0;0
109;1;0;0;0;9,463605213;0;0;0;0;0;0
110;1;0;0;0;9,463605213;0;0;0;0;0;0
111;1;0;0;0;9,463605213;0;0;0;0;0;0
112;1;0;0;0;9,463605213;0;0;0;0;0;0
113;1;0;0;0;9,463605213;0;0;0;0;0;0
114;1;0;0;0;9,463605213;0;0;0;0;0;0
115;1;0;0;0;9,463605213;0;0;0;0;0;0
116;1;0;0;0;9,463605213;0;0;0;0;0;0
117;1;0;0;0;9,463605213;0;0;0;0;0;0
118;1;0;0;0;9,463605213;0;0;0;0;0;0
119;1;0;0;0;9,463605213;0;0;0;0;0;0
120;1;0;0;0;9,463605213;0;0;0;0;0;0
121;1;0;0;0;9,463605213;0;0;0;0;0;0
122;1;0;0;0;9,463605213;0;0;0;0;0;0
123;1;0;0;0;9,463605213;0;0;0;0;0;0
124;1;0;0;0;9,463605213;0;0;0;0;0;0
125;1;0;0;0;9,463605213;0;0;0;0;0;0
126;1;0;0;0;9,463605213;0;0;0;0;0;0
127;1;0;0;0;9,463605213;0;0;0;0;0;0
128;1;0;0;0;9,463605213;0;0;0;0;0;0
129;1;0;0;0;9,463605213;0;0;0;0;0;0
130;1;0;0;0;9,463605213;0;0;0;0;0;0
131;1;0;0;0;9,463605213;0;0;0;0;0;0
132;1;0;0;0;9,463605213;0;0;0;0;0;0
133;1;0;0;0;9,463605213;0;0;0;0;0;0
134;1;0;0;0;9,463605213;0;0;0;0;0;0
135;1;0;0;0;9,463605213;0;0;0;0;0;0
136;1;0;0;0;9,463605213;0;0;0;0;0;0
137;1;0;0;0;9,463605213;0;0;0;0;0;0
138;1;0;0;0;9,463605213;0;0;0;0;0;0
139;1;0;0;0;9,463605213;0;0;0;0;0;0
140;1;0;0;0;9,463605213;0;0;0;0;0;0
141;1;0;0;0;9,463605213;0;0;0;0;0;0
142;1;0;0;0;9,463605213;0;0;0;0;0;0
143;1;0;0;0;9,463605213;0;0;0;0;0;0
144;1;0;0;0;9,463605213;0;0;0;0;0;0
145;1;0;0;0;9,463605213;0;0;0;0;0;0
146;1;0;0;0;9,463605213;0;0;0;0;0;0
147;1;0;0;0;9,463605213;0;0;0;0;0;0
148;1;0;0;0;0;9,452890192;0;0;0;0;0
149;1;0;0;0;0;9,452890192;0;0;0;0;0
150;1;0;0;0;0;9,452890192;0;0;0;0;0
151;1;0;0;0;0;9,452890192;0;0;0;0;0
152;1;0;0;0;0;9,452890192;0;0;0;0;0
153;1;0;0;0;0;9,452890192;0;0;0;0;0
154;1;0;0;0;0;9,452890192;0;0;0;0;0
155;1;0;0;0;0;9,452890192;0;0;0;0;0
156;1;0;0;0;0;9,452890192;0;0;0;0;0
157;1;0;0;0;0;9,452890192;0;0;0;0;0
158;1;0;0;0;0;9,452890192;0;0;0;0;0
159;1;0;0;0;0;9,452890192;0;0;0;0;0
160;1;0;0;0;0;9,452890192;0;0;0;0;0
161;1;0;0;0;0;9,452890192;0;0;0;0;0
162;1;0;0;0;0;9,452890192;0;0;0;0;0
163;1;0;0;0;0;9,452890192;0;0;0;0;0
164;1;0;0;0;0;9,452890192;0;0;0;0;0
165;1;0;0;0;0;9,452890192;0;0;0;0;0
166;1;0;0;0;0;9,452890192;0;0;0;0;0
167;1;0;0;0;0;9,452890192;0;0;0;0;0
168;1;0;0;0;0;9,452890192;0;0;0;0;0
169;1;0;0;0;0;9,452890192;0;0;0;0;0
170;1;0;0;0;0;9,452890192;0;0;0;0;0
171;1;0;0;0;0;9,452890192;0;0;0;0;0
172;1;0;0;0;0;9,452890192;0;0;0;0;0
173;1;0;0;0;0;9,452890192;0;0;0;0;0
174;1;0;0;0;0;9,452890192;0;0;0;0;0
175;1;0;0;0;0;9,452890192;0;0;0;0;0
176;1;0;0;0;0;9,452890192;0;0;0;0;0
177;1;0;0;0;0;9,452890192;0;0;0;0;0
178;1;0;0;0;0;9,452890192;0;0;0;0;0
179;1;0;0;0;0;9,452890192;0;0;0;0;0
180;1;0;0;0;0;9,452890192;0;0;0;0;0
181;1;0;0;0;0;9,452890192;0;0;0;0;0
182;1;0;0;0;0;9,452890192;0;0;0;0;0
183;1;0;0;0;0;9,452890192;0;0;0;0;0
184;1;0;0;0;0;9,452890192;0;0;0;0;0
185;1;0;0;0;0;9,452890192;0;0;0;0;0
186;1;0;0;0;0;9,452890192;0;0;0;0;0
187;1;0;0;0;0;9,452890192;0;0;0;0;0
188;1;0;0;0;0;9,452890192;0;0;0;0;0
189;1;0;0;0;0;9,452890192;0;0;0;0;0
190;1;0;0;0;0;9,452890192;0;0;0;0;0
191;1;0;0;0;0;9,452890192;0;0;0;0;0
192;1;0;0;0;0;9,452890192;0;0;0;0;0
193;1;0;0;0;0;9,452890192;0;0;0;0;0
194;1;0;0;0;0;9,452890192;0;0;0;0;0
195;1;0;0;0;0;9,452890192;0;0;0;0;0
196;1;0;0;0;0;9,452890192;0;0;0;0;0
197;1;0;0;0;0;9,452890192;0;0;0;0;0
198;1;0;0;0;0;9,452890192;0;0;0;0;0
199;1;0;0;0;0;9,452890192;0;0;0;0;0
200;2;0;0;0;0;9,452890192;0;0;0;0;0
201;2;0;0;0;0;9,452890192;0;0;0;0;0
202;2;0;0;0;0;9,452890192;0;0;0;0;0
203;2;0;0;0;0;9,452890192;0;0;0;0;0
204;2;0;0;0;0;9,452890192;0;0;0;0;0
205;2;0;0;0;0;9,452890192;0;0;0;0;0
206;2;0;0;0;0;9,452890192;0;0;0;0;0
207;2;0;0;0;0;9,452890192;0;0;0;0;0
208;2;0;0;0;0;9,452890192;0;0;0;0;0
209;2;0;0;0;0;9,452890192;0;0;0;0;0
210;2;0;0;0;0;9,452890192;0;0;0;0;0
211;2;0;0;0;0;9,452890192;0;0;0;0;0
212;2;0;0;0;0;9,452890192;0;0;0;0;0
213;2;0;0;0;0;9,452890192;0;0;0;0;0
214;2;0;0;0;0;9,452890192;0;0;0;0;0
215;2;0;0;0;0;9,452890192;0;0;0;0;0
216;2;0;0;0;0;9,452890192;0;0;0;0;0
217;2;0;0;0;0;9,452890192;0;0;0;0;0
218;2;0;0;0;0;9,452890192;0;0;0;0;0
219;2;0;0;0;0;9,452890192;0;0;0;0;0
220;2;0;0;0;0;9,452890192;0;0;0;0;0
221;2;0;0;0;0;9,452890192;0;0;0;0;0
222;2;0;0;0;0;9,452890192;0;0;0;0;0
223;2;0;0;0;0;9,452890192;0;0;0;0;0
224;2;0;0;0;0;9,452890192;0;0;0;0;0
225;2;0;0;0;0;9,452890192;0;0;0;0;0
226;2;0;0;0;0;9,452890192;0;0;0;0;0
227;2;0;0;0;0;9,452890192;0;0;0;0;0
228;2;0;0;0;0;9,452890192;0;0;0;0;0
229;2;0;0;0;0;9,452890192;0;0;0;0;0
230;2;0;0;0;0;9,452890192;0;0;0;0;0
231;2;0;0;0;0;9,452890192;0;0;0;0;0
232;2;0;0;0;0;9,452890192;0;0;0;0;0
233;2;0;0;0;0;9,452890192;0;0;0;0;0
234;2;0;0;0;0;9,452890192;0;0;0;0;0
235;2;0;0;0;0;9,452890192;0;0;0;0;0
236;2;0;0;0;0;9,452890192;0;0;0;0;0
237;2;0;0;0;0;9,452890192;0;0;0;0;0
238;2;0;0;0;0;9,452890192;0;0;0;0;0
239;2;0;0;0;0;9,452890192;0;0;0;0;0
240;2;0;0;0;0;9,452890192;0;0;0;0;0
241;2;0;0;0;0;9,452890192;0;0;0;0;0
242;2;0;0;0;0;9,452890192;0;0;0;0;0
243;2;0;0;0;0;9,452890192;0;0;0;0;0
244;2;0;0;0;0;9,452890192;0;0;0;0;0
245;2;0;0;0;0;9,452890192;0;0;0;0;0
246;2;0;0;0;0;9,452890192;0;0;0;0;0
247;2;0;0;0;0;9,452890192;0;0;0;0;0
248;2;0;0;0;0;9,452890192;0;0;0;0;0
249;2;0;0;0;0;9,452890192;0;0;0;0;0
250;2;0;0;0;0;9,452890192;0;0;0;0;0
251;2;0;0;0;0;9,452890192;0;0;0;0;0
252;2;0;0;0;0;9,452890192;0;0;0;0;0
253;2;0;0;0;0;9,452890192;0;0;0;0;0
254;2;0;0;0;0;9,452890192;0;0;0;0;0
255;2;0;0;0;0;9,452890192;0;0;0;0;0
256;2;0;0;0;0;9,452890192;0;0;0;0;0
257;2;0;0;0;0;9,452890192;0;0;0;0;0
258;2;0;0;0;0;9,452890192;0;0;0;0;0
259;2;0;0;0;0;9,452890192;0;0;0;0;0
260;2;0;0;0;0;9,452890192;0;0;0;0;0
261;2;0;0;0;0;9,452890192;0;0;0;0;0
262;2;0;0;0;0;9,452890192;0;0;0;0;0
263;2;0;0;0;0;9,452890192;0;0;0;0;0
264;2;0;0;0;0;9,452890192;0;0;0;0;0
265;2;0;0;0;0;9,452890192;0;0;0;0;0
266;2;0;0;0;0;9,452890192;0;0;0;0;0
267;2;0;0;0;0;9,452890192;0;0;0;0;0
268;2;0;0;0;0;9,452890192;0;0;0;0;0
269;2;0;0;0;0;9,452890192;0;0;0;0;0
270;2;0;0;0;0;9,452890192;0;0;0;0;0
271;2;0;0;0;0;9,452890192;0;0;0;0;0
272;2;0;0;0;0;9,452890192;0;0;0;0;0
273;2;0;0;0;0;9,452890192;0;0;0;0;0
274;2;0;0;0;0;9,452890192;0;0;0;0;0
275;2;0;0;0;0;9,452890192;0;0;0;0;0
276;2;0;0;0;0;9,452890192;0;0;0;0;0
277;2;0;0;0;0;9,452890192;0;0;0;0;0
278;2;0;0;0;0;9,452890192;0;0;0;0;0
279;2;0;0;0;0;9,452890192;0;0;0;0;0
280;2;0;0;0;0;9,452890192;0;0;0;0;0
281;2;0;0;0;0;9,452890192;0;0;0;0;0
282;2;0;0;0;0;9,452890192;0;0;0;0;0
283;2;0;0;0;0;9,452890192;0;0;0;0;0
284;2;0;0;0;0;0;9,327207407;0;0;0;0
285;2;0;0;0;0;0;9,327207407;0;0;0;0
286;2;0;0;0;0;0;9,327207407;0;0;0;0
287;2;0;0;0;0;0;9,327207407;0;0;0;0
288;2;0;0;0;0;0;9,327207407;0;0;0;0
289;2;0;0;0;0;0;9,327207407;0;0;0;0
290;2;0;0;0;0;0;9,327207407;0;0;0;0
291;2;0;0;0;0;0;9,327207407;0;0;0;0
292;2;0;0;0;0;0;9,327207407;0;0;0;0
293;2;0;0;0;0;0;9,327207407;0;0;0;0
294;2;0;0;0;0;0;9,327207407;0;0;0;0
295;2;0;0;0;0;0;9,327207407;0;0;0;0
296;2;0;0;0;0;0;9,327207407;0;0;0;0
297;2;0;0;0;0;0;9,327207407;0;0;0;0
298;2;0;0;0;0;0;9,327207407;0;0;0;0
299;2;0;0;0;0;0;9,327207407;0;0;0;0
300;3;0;0;0;0;0;9,327207407;0;0;0;0
301;3;0;0;0;0;0;9,327207407;0;0;0;0
302;3;0;0;0;0;0;9,327207407;0;0;0;0
303;3;0;0;0;0;0;9,327207407;0;0;0;0
304;3;0;0;0;0;0;9,327207407;0;0;0;0
305;3;0;0;0;0;0;9,327207407;0;0;0;0
306;3;0;0;0;0;0;9,327207407;0;0;0;0
307;3;0;0;0;0;0;9,327207407;0;0;0;0
308;3;0;0;0;0;0;9,327207407;0;0;0;0
309;3;0;0;0;0;0;9,327207407;0;0;0;0
310;3;0;0;0;0;0;9,327207407;0;0;0;0
311;3;0;0;0;0;0;9,327207407;0;0;0;0
312;3;0;0;0;0;0;9,327207407;0;0;0;0
313;3;0;0;0;0;0;9,327207407;0;0;0;0
314;3;0;0;0;0;0;9,327207407;0;0;0;0
315;3;0;0;0;0;0;9,327207407;0;0;0;0
316;3;0;0;0;0;0;9,327207407;0;0;0;0
317;3;0;0;0;0;0;9,327207407;0;0;0;0
318;3;0;0;0;0;0;9,327207407;0;0;0;0
319;3;0;0;0;0;0;9,327207407;0;0;0;0
320;3;0;0;0;0;0;9,327207407;0;0;0;0
321;3;0;0;0;0;0;9,327207407;0;0;0;0
322;3;0;0;0;0;0;9,327207407;0;0;0;0
323;3;0;0;0;0;0;9,327207407;0;0;0;0
324;3;0;0;0;0;0;9,327207407;0;0;0;0
325;3;0;0;0;0;0;9,327207407;0;0;0;0
326;3;0;0;0;0;0;9,327207407;0;0;0;0
327;3;0;0;0;0;0;9,327207407;0;0;0;0
328;3;0;0;0;0;0;9,327207407;0;0;0;0
329;3;0;0;0;0;0;9,327207407;0;0;0;0
330;3;0;0;0;0;0;9,327207407;0;0;0;0
331;3;0;0;0;0;0;9,327207407;0;0;0;0
332;3;0;0;0;0;0;9,327207407;0;0;0;0
333;3;0;0;0;0;0;9,327207407;0;0;0;0
334;3;0;0;0;0;0;9,327207407;0;0;0;0
335;3;0;0;0;0;0;0;8,308114622;0;0;0
336;3;0;0;0;0;0;0;8,308114622;0;0;0
337;3;0;0;0;0;0;0;8,308114622;0;0;0
338;3;0;0;0;0;0;0;8,308114622;0;0;0
339;3;0;0;0;0;0;0;8,308114622;0;0;0
340;3;0;0;0;0;0;0;8,308114622;0;0;0
341;3;0;0;0;0;0;0;8,308114622;0;0;0
342;3;0;0;0;0;0;0;8,308114622;0;0;0
343;3;0;0;0;0;0;0;8,308114622;0;0;0
344;3;0;0;0;0;0;0;8,308114622;0;0;0
345;3;0;0;0;0;0;0;8,308114622;0;0;0
346;3;0;0;0;0;0;0;8,308114622;0;0;0
347;3;0;0;0;0;0;0;8,308114622;0;0;0
348;3;0;0;0;0;0;0;8,308114622;0;0;0
349;3;0;0;0;0;0;0;8,308114622;0;0;0
350;3;0;0;0;0;0;0;8,308114622;0;0;0
351;3;0;0;0;0;0;0;8,308114622;0;0;0
352;3;0;0;0;0;0;0;8,308114622;0;0;0
353;3;0;0;0;0;0;0;8,308114622;0;0;0
354;3;0;0;0;0;0;0;8,308114622;0;0;0
355;3;0;0;0;0;0;0;8,308114622;0;0;0
356;3;0;0;0;0;0;0;8,308114622;0;0;0
357;3;0;0;0;0;0;0;8,308114622;0;0;0
358;3;0;0;0;0;0;0;8,308114622;0;0;0
359;3;0;0;0;0;0;0;8,308114622;0;0;0
360;3;0;0;0;0;0;0;8,308114622;0;0;0
361;3;0;0;0;0;0;0;8,308114622;0;0;0
362;3;0;0;0;0;0;0;8,308114622;0;0;0
363;3;0;0;0;0;0;0;8,308114622;0;0;0
364;3;0;0;0;0;0;0;8,308114622;0;0;0
365;3;0;0;0;0;0;0;0;5,353751274;0;0
366;3;0;0;0;0;0;0;0;5,353751274;0;0
367;3;0;0;0;0;0;0;0;5,353751274;0;0
368;3;0;0;0;0;0;0;0;5,353751274;0;0
369;3;0;0;0;0;0;0;0;5,353751274;0;0
370;3;0;0;0;0;0;0;0;5,353751274;0;0
371;3;0;0;0;0;0;0;0;5,353751274;0;0
372;3;0;0;0;0;0;0;0;5,353751274;0;0
373;3;0;0;0;0;0;0;0;5,353751274;0;0
374;3;0;0;0;0;0;0;0;5,353751274;0;0
375;3;0;0;0;0;0;0;0;5,353751274;0;0
376;3;0;0;0;0;0;0;0;5,353751274;0;0
377;3;0;0;0;0;0;0;0;5,353751274;0;0
378;3;0;0;0;0;0;0;0;5,353751274;0;0
379;3;0;0;0;0;0;0;0;5,353751274;0;0
380;3;0;0;0;0;0;0;0;5,353751274;0;0
381;3;0;0;0;0;0;0;0;5,353751274;0;0
382;3;0;0;0;0;0;0;0;5,353751274;0;0
383;3;0;0;0;0;0;0;0;5,353751274;0;0
384;3;0;0;0;0;0;0;0;5,353751274;0;0
385;3;0;0;0;0;0;0;0;5,353751274;0;0
386;3;0;0;0;0;0;0;0;5,353751274;0;0
387;3;0;0;0;0;0;0;0;5,353751274;0;0
388;3;0;0;0;0;0;0;0;5,353751274;0;0
389;3;0;0;0;0;0;0;0;5,353751274;0;0
390;3;0;0;0;0;0;0;0;5,353751274;0;0
391;3;0;0;0;0;0;0;0;5,353751274;0;0
392;3;0;0;0;0;0;0;0;5,353751274;0;0
393;3;0;0;0;0;0;0;0;5,353751274;0;0
394;3;0;0;0;0;0;0;0;5,353751274;0;0
395;3;0;0;0;0;0;0;0;5,353751274;0;0
396;3;0;0;0;0;0;0;0;5,353751274;0;0
397;3;0;0;0;0;0;0;0;5,353751274;0;0
398;3;0;0;0;0;0;0;0;5,353751274;0;0
399;3;0;0;0;0;0;0;0;5,353751274;0;0
400;4;0;0;0;0;0;0;0;5,353751274;0;0
401;4;0;0;0;0;0;0;0;5,353751274;0;0
402;4;0;0;0;0;0;0;0;5,353751274;0;0
403;4;0;0;0;0;0;0;0;5,353751274;0;0
404;4;0;0;0;0;0;0;0;5,353751274;0;0
405;4;0;0;0;0;0;0;0;5,353751274;0;0
406;4;0;0;0;0;0;0;0;5,353751274;0;0
407;4;0;0;0;0;0;0;0;5,353751274;0;0
408;4;0;0;0;0;0;0;0;5,353751274;0;0
409;4;0;0;0;0;0;0;0;5,353751274;0;0
410;4;0;0;0;0;0;0;0;5,353751274;0;0
411;4;0;0;0;0;0;0;0;5,353751274;0;0
412;4;0;0;0;0;0;0;0;5,353751274;0;0
413;4;0;0;0;0;0;0;0;5,353751274;0;0
414;4;0;0;0;0;0;0;0;5,353751274;0;0
415;4;0;0;0;0;0;0;0;5,353751274;0;0
416;4;0;0;0;0;0;0;0;5,353751274;0;0
417;4;0;0;0;0;0;0;0;5,353751274;0;0
418;4;0;0;0;0;0;0;0;5,353751274;0;0
419;4;0;0;0;0;0;0;0;5,353751274;0;0
420;4;0;0;0;0;0;0;0;5,353751274;0;0
421;4;0;0;0;0;0;0;0;5,353751274;0;0
422;4;0;0;0;0;0;0;0;5,353751274;0;0
423;4;0;0;0;0;0;0;0;5,353751274;0;0
424;4;0;0;0;0;0;0;0;5,353751274;0;0
425;4;0;0;0;0;0;0;0;5,353751274;0;0
426;4;0;0;0;0;0;0;0;5,353751274;0;0
427;4;0;0;0;0;0;0;0;5,353751274;0;0
428;4;0;0;0;0;0;0;0;5,353751274;0;0
429;4;0;0;0;0;0;0;0;5,353751274;0;0
430;4;0;0;0;0;0;0;0;5,353751274;0;0
431;4;0;0;0;0;0;0;0;5,353751274;0;0
432;4;0;0;0;0;0;0;0;5,353751274;0;0
433;4;0;0;0;0;0;0;0;5,353751274;0;0
434;4;0;0;0;0;0;0;0;5,353751274;0;0
435;4;0;0;0;0;0;0;0;5,353751274;0;0
436;4;0;0;0;0;0;0;0;5,353751274;0;0
437;4;0;0;0;0;0;0;0;5,353751274;0;0
438;4;0;0;0;0;0;0;0;5,353751274;0;0
439;4;0;0;0;0;0;0;0;5,353751274;0;0
440;4;0;0;0;0;0;0;0;5,353751274;0;0
441;4;0;0;0;0;0;0;0;5,353751274;0;0
442;4;0;0;0;0;0;0;0;5,353751274;0;0
443;4;0;0;0;0;0;0;0;5,353751274;0;0
444;4;0;0;0;0;0;0;0;5,353751274;0;0
445;4;0;0;0;0;0;0;0;5,353751274;0;0
446;4;0;0;0;0;0;0;0;5,353751274;0;0
447;4;0;0;0;0;0;0;0;5,353751274;0;0
448;4;0;0;0;0;0;0;0;5,353751274;0;0
449;4;0;0;0;0;0;0;0;5,353751274;0;0
450;4;0;0;0;0;0;0;0;5,353751274;0;0
451;4;0;0;0;0;0;0;0;5,353751274;0;0
452;4;0;0;0;0;0;0;0;5,353751274;0;0
453;4;0;0;0;0;0;0;0;5,353751274;0;0
454;4;0;0;0;0;0;0;0;5,353751274;0;0
455;4;0;0;0;0;0;0;0;5,353751274;0;0
456;4;0;0;0;0;0;0;0;5,353751274;0;0
457;4;0;0;0;0;0;0;0;5,353751274;0;0
458;4;0;0;0;0;0;0;0;5,353751274;0;0
459;4;0;0;0;0;0;0;0;5,353751274;0;0
460;4;0;0;0;0;0;0;0;5,353751274;0;0
461;4;0;0;0;0;0;0;0;5,353751274;0;0
462;4;0;0;0;0;0;0;0;5,353751274;0;0
463;4;0;0;0;0;0;0;0;5,353751274;0;0
464;4;0;0;0;0;0;0;0;5,353751274;0;0
465;4;0;0;0;0;0;0;0;5,353751274;0;0
466;4;0;0;0;0;0;0;0;5,353751274;0;0
467;4;0;0;0;0;0;0;0;5,353751274;0;0
468;4;0;0;0;0;0;0;0;5,353751274;0;0
469;4;0;0;0;0;0;0;0;5,353751274;0;0
470;4;0;0;0;0;0;0;0;5,353751274;0;0
471;4;0;0;0;0;0;0;0;5,353751274;0;0
472;4;0;0;0;0;0;0;0;0;3,463899343;0
473;4;0;0;0;0;0;0;0;0;3,463899343;0
474;4;0;0;0;0;0;0;0;0;3,463899343;0
475;4;0;0;0;0;0;0;0;0;3,463899343;0
476;4;0;0;0;0;0;0;0;0;3,463899343;0
477;4;0;0;0;0;0;0;0;0;3,463899343;0
478;4;0;0;0;0;0;0;0;0;3,463899343;0
479;4;0;0;0;0;0;0;0;0;3,463899343;0
480;4;0;0;0;0;0;0;0;0;3,463899343;0
481;4;0;0;0;0;0;0;0;0;3,463899343;0
482;4;0;0;0;0;0;0;0;0;3,463899343;0
483;4;0;0;0;0;0;0;0;0;3,463899343;0
484;4;0;0;0;0;0;0;0;0;3,463899343;0
485;4;0;0;0;0;0;0;0;0;3,463899343;0
486;4;0;0;0;0;0;0;0;0;3,463899343;0
487;4;0;0;0;0;0;0;0;0;3,463899343;0
488;4;0;0;0;0;0;0;0;0;3,463899343;0
489;4;0;0;0;0;0;0;0;0;3,463899343;0
490;4;0;0;0;0;0;0;0;0;3,463899343;0
491;4;0;0;0;0;0;0;0;0;3,463899343;0
492;4;0;0;0;0;0;0;0;0;3,463899343;0
493;4;0;0;0;0;0;0;0;0;3,463899343;0
494;4;0;0;0;0;0;0;0;0;3,463899343;0
495;4;0;0;0;0;0;0;0;0;3,463899343;0
496;4;0;0;0;0;0;0;0;0;3,463899343;0
497;4;0;0;0;0;0;0;0;0;3,463899343;0
498;4;0;0;0;0;0;0;0;0;3,463899343;0
499;4;0;0;0;0;0;0;0;0;3,463899343;0
500;5;0;0;0;0;0;0;0;0;3,463899343;0
501;5;0;0;0;0;0;0;0;0;3,463899343;0
502;5;0;0;0;0;0;0;0;0;3,463899343;0
503;5;0;0;0;0;0;0;0;0;3,463899343;0
504;5;0;0;0;0;0;0;0;0;3,463899343;0
505;5;0;0;0;0;0;0;0;0;3,463899343;0
506;5;0;0;0;0;0;0;0;0;3,463899343;0
507;5;0;0;0;0;0;0;0;0;3,463899343;0
508;5;0;0;0;0;0;0;0;0;3,463899343;0
509;5;0;0;0;0;0;0;0;0;3,463899343;0
510;5;0;0;0;0;0;0;0;0;3,463899343;0
511;5;0;0;0;0;0;0;0;0;3,463899343;0
512;5;0;0;0;0;0;0;0;0;3,463899343;0
513;5;0;0;0;0;0;0;0;0;3,463899343;0
514;5;0;0;0;0;0;0;0;0;3,463899343;0
515;5;0;0;0;0;0;0;0;0;3,463899343;0
516;5;0;0;0;0;0;0;0;0;3,463899343;0
517;5;0;0;0;0;0;0;0;0;3,463899343;0
518;5;0;0;0;0;0;0;0;0;3,463899343;0
519;5;0;0;0;0;0;0;0;0;3,463899343;0
520;5;0;0;0;0;0;0;0;0;3,463899343;0
521;5;0;0;0;0;0;0;0;0;3,463899343;0
522;5;0;0;0;0;0;0;0;0;3,463899343;0
523;5;0;0;0;0;0;0;0;0;3,463899343;0
524;5;0;0;0;0;0;0;0;0;3,463899343;0
525;5;0;0;0;0;0;0;0;0;3,463899343;0
526;5;0;0;0;0;0;0;0;0;3,463899343;0
527;5;0;0;0;0;0;0;0;0;3,463899343;0
528;5;0;0;0;0;0;0;0;0;3,463899343;0
529;5;0;0;0;0;0;0;0;0;3,463899343;0
530;5;0;0;0;0;0;0;0;0;3,463899343;0
531;5;0;0;0;0;0;0;0;0;3,463899343;0
532;5;0;0;0;0;0;0;0;0;3,463899343;0
533;5;0;0;0;0;0;0;0;0;3,463899343;0
534;5;0;0;0;0;0;0;0;0;3,463899343;0
535;5;0;0;0;0;0;0;0;0;3,463899343;0
536;5;0;0;0;0;0;0;0;0;3,463899343;0
537;5;0;0;0;0;0;0;0;0;3,463899343;0
538;5;0;0;0;0;0;0;0;0;3,463899343;0
539;5;0;0;0;0;0;0;0;0;3,463899343;0
540;5;0;0;0;0;0;0;0;0;3,463899343;0
541;5;0;0;0;0;0;0;0;0;3,463899343;0
542;5;0;0;0;0;0;0;0;0;3,463899343;0
543;5;0;0;0;0;0;0;0;0;3,463899343;0
544;5;0;0;0;0;0;0;0;0;3,463899343;0
545;5;0;0;0;0;0;0;0;0;3,463899343;0
546;5;0;0;0;0;0;0;0;0;3,463899343;0
547;5;0;0;0;0;0;0;0;0;3,463899343;0
548;5;0;0;0;0;0;0;0;0;3,463899343;0
549;5;0;0;0;0;0;0;0;0;3,463899343;0
550;5;0;0;0;0;0;0;0;0;3,463899343;0
551;5;0;0;0;0;0;0;0;0;3,463899343;0
552;5;0;0;0;0;0;0;0;0;3,463899343;0
553;5;0;0;0;0;0;0;0;0;3,463899343;0
554;5;0;0;0;0;0;0;0;0;3,463899343;0
555;5;0;0;0;0;0;0;0;0;3,463899343;0
556;5;0;0;0;0;0;0;0;0;3,463899343;0
557;5;0;0;0;0;0;0;0;0;3,463899343;0
558;5;0;0;0;0;0;0;0;0;3,463899343;0
559;5;0;0;0;0;0;0;0;0;3,463899343;0
560;5;0;0;0;0;0;0;0;0;3,463899343;0
561;5;0;0;0;0;0;0;0;0;3,463899343;0
562;5;0;0;0;0;0;0;0;0;3,463899343;0
563;5;0;0;0;0;0;0;0;0;3,463899343;0
564;5;0;0;0;0;0;0;0;0;3,463899343;0
565;5;0;0;0;0;0;0;0;0;3,463899343;0
566;5;0;0;0;0;0;0;0;0;3,463899343;0
567;5;0;0;0;0;0;0;0;0;3,463899343;0
568;5;0;0;0;0;0;0;0;0;3,463899343;0
569;5;0;0;0;0;0;0;0;0;3,463899343;0
570;5;0;0;0;0;0;0;0;0;3,463899343;0
571;5;0;0;0;0;0;0;0;0;3,463899343;0
572;5;0;0;0;0;0;0;0;0;3,463899343;0
573;5;0;0;0;0;0;0;0;0;3,463899343;0
574;5;0;0;0;0;0;0;0;0;3,463899343;0
575;5;0;0;0;0;0;0;0;0;3,463899343;0
576;5;0;0;0;0;0;0;0;0;3,463899343;0
577;5;0;0;0;0;0;0;0;0;3,463899343;0
578;5;0;0;0;0;0;0;0;0;0;2,428177525
579;5;0;0;0;0;0;0;0;0;0;2,428177525
580;5;0;0;0;0;0;0;0;0;0;2,428177525
581;5;0;0;0;0;0;0;0;0;0;2,428177525
582;5;0;0;0;0;0;0;0;0;0;2,428177525
583;5;0;0;0;0;0;0;0;0;0;2,428177525
584;5;0;0;0;0;0;0;0;0;0;2,428177525
585;5;0;0;0;0;0;0;0;0;0;2,428177525
586;5;0;0;0;0;0;0;0;0;0;2,428177525
587;5;0;0;0;0;0;0;0;0;0;2,428177525
588;5;0;0;0;0;0;0;0;0;0;2,428177525
589;5;0;0;0;0;0;0;0;0;0;2,428177525
590;5;0;0;0;0;0;0;0;0;0;2,428177525
591;5;0;0;0;0;0;0;0;0;0;2,428177525
592;5;0;0;0;0;0;0;0;0;0;2,428177525
593;5;0;0;0;0;0;0;0;0;0;2,428177525
594;5;0;0;0;0;0;0;0;0;0;2,428177525
595;5;0;0;0;0;0;0;0;0;0;2,428177525
596;5;0;0;0;0;0;0;0;0;0;2,428177525
597;5;0;0;0;0;0;0;0;0;0;2,428177525
598;5;0;0;0;0;0;0;0;0;0;2,428177525
599;5;0;0;0;0;0;0;0;0;0;2,428177525
600;6;0;0;0;0;0;0;0;0;0;2,428177525
601;6;0;0;0;0;0;0;0;0;0;2,428177525
602;6;0;0;0;0;0;0;0;0;0;2,428177525
603;6;0;0;0;0;0;0;0;0;0;2,428177525
604;6;0;0;0;0;0;0;0;0;0;2,428177525
605;6;0;0;0;0;0;0;0;0;0;2,428177525
606;6;0;0;0;0;0;0;0;0;0;2,428177525
607;6;0;0;0;0;0;0;0;0;0;2,428177525
608;6;0;0;0;0;0;0;0;0;0;2,428177525
609;6;0;0;0;0;0;0;0;0;0;2,428177525
610;6;0;0;0;0;0;0;0;0;0;2,428177525
611;6;0;0;0;0;0;0;0;0;0;2,428177525
612;6;0;0;0;0;0;0;0;0;0;2,428177525
613;6;0;0;0;0;0;0;0;0;0;2,428177525
614;6;0;0;0;0;0;0;0;0;0;2,428177525
615;6;0;0;0;0;0;0;0;0;0;2,428177525
616;6;0;0;0;0;0;0;0;0;0;2,428177525
617;6;0;0;0;0;0;0;0;0;0;2,428177525
618;6;0;0;0;0;0;0;0;0;0;2,428177525
619;6;0;0;0;0;0;0;0;0;0;2,428177525
620;6;0;0;0;0;0;0;0;0;0;2,428177525
621;6;0;0;0;0;0;0;0;0;0;2,428177525
622;6;0;0;0;0;0;0;0;0;0;2,428177525
623;6;0;0;0;0;0;0;0;0;0;2,428177525
624;6;0;0;0;0;0;0;0;0;0;2,428177525
625;6;0;0;0;0;0;0;0;0;0;2,428177525
626;6;0;0;0;0;0;0;0;0;0;2,428177525
627;6;0;0;0;0;0;0;0;0;0;2,428177525
628;6;0;0;0;0;0;0;0;0;0;2,428177525
629;6;0;0;0;0;0;0;0;0;0;2,428177525
630;6;0;0;0;0;0;0;0;0;0;2,428177525
631;6;0;0;0;0;0;0;0;0;0;2,428177525
632;6;0;0;0;0;0;0;0;0;0;2,428177525
633;6;0;0;0;0;0;0;0;0;0;2,428177525
634;6;0;0;0;0;0;0;0;0;0;2,428177525
635;6;0;0;0;0;0;0;0;0;0;2,428177525
636;6;0;0;0;0;0;0;0;0;0;2,428177525
637;6;0;0;0;0;0;0;0;0;0;2,428177525
638;6;0;0;0;0;0;0;0;0;0;2,428177525
639;6;0;0;0;0;0;0;0;0;0;2,428177525
640;6;0;0;0;0;0;0;0;0;0;2,428177525
641;6;0;0;0;0;0;0;0;0;0;2,428177525
642;6;0;0;0;0;0;0;0;0;0;2,428177525
643;6;0;0;0;0;0;0;0;0;0;2,428177525
644;6;0;0;0;0;0;0;0;0;0;2,428177525
645;6;0;0;0;0;0;0;0;0;0;2,428177525
646;6;0;0;0;0;0;0;0;0;0;2,428177525
647;6;0;0;0;0;0;0;0;0;0;2,428177525
648;6;0;0;0;0;0;0;0;0;0;2,428177525
649;6;0;0;0;0;0;0;0;0;0;2,428177525
650;6;0;0;0;0;0;0;0;0;0;2,428177525
651;6;0;0;0;0;0;0;0;0;0;2,428177525
652;6;0;0;0;0;0;0;0;0;0;2,428177525
653;6;0;0;0;0;0;0;0;0;0;2,428177525
654;6;0;0;0;0;0;0;0;0;0;2,428177525
655;6;0;0;0;0;0;0;0;0;0;2,428177525
656;6;0;0;0;0;0;0;0;0;0;2,428177525
657;6;0;0;0;0;0;0;0;0;0;2,428177525
658;6;0;0;0;0;0;0;0;0;0;2,428177525
659;6;0;0;0;0;0;0;0;0;0;2,428177525
660;6;0;0;0;0;0;0;0;0;0;2,428177525
661;6;0;0;0;0;0;0;0;0;0;2,428177525
662;6;0;0;0;0;0;0;0;0;0;2,428177525
663;6;0;0;0;0;0;0;0;0;0;2,428177525
664;6;0;0;0;0;0;0;0;0;0;2,428177525
665;6;0;0;0;0;0;0;0;0;0;2,428177525
666;6;0;0;0;0;0;0;0;0;0;2,428177525
667;6;0;0;0;0;0;0;0;0;0;2,428177525
668;6;0;0;0;0;0;0;0;0;0;2,428177525
669;6;0;0;0;0;0;0;0;0;0;2,428177525
670;6;0;0;0;0;0;0;0;0;0;2,428177525
671;6;0;0;0;0;0;0;0;0;0;2,428177525
672;6;0;0;0;0;0;0;0;0;0;2,428177525
673;6;0;0;0;0;0;0;0;0;0;2,428177525
674;6;0;0;0;0;0;0;0;0;0;2,428177525
675;6;0;0;0;0;0;0;0;0;0;2,428177525
676;6;0;0;0;0;0;0;0;0;0;2,428177525
677;6;0;0;0;0;0;0;0;0;0;2,428177525
678;6;0;0;0;0;0;0;0;0;0;2,428177525
679;6;0;0;0;0;0;0;0;0;0;2,428177525
680;6;0;0;0;0;0;0;0;0;0;2,428177525
681;6;0;0;0;0;0;0;0;0;0;2,428177525
682;6;0;0;0;0;0;0;0;0;0;2,428177525
683;6;0;0;0;0;0;0;0;0;0;2,428177525
684;6;0;0;0;0;0;0;0;0;0;2,428177525
685;6;0;0;0;0;0;0;0;0;0;2,428177525
686;6;0;0;0;0;0;0;0;0;0;2,428177525
687;6;0;0;0;0;0;0;0;0;0;2,428177525
688;6;0;0;0;0;0;0;0;0;0;2,428177525
689;6;0;0;0;0;0;0;0;0;0;2,428177525
690;6;0;0;0;0;0;0;0;0;0;2,428177525
691;6;0;0;0;0;0;0;0;0;0;2,428177525
692;6;0;0;0;0;0;0;0;0;0;2,428177525
693;6;0;0;0;0;0;0;0;0;0;2,428177525
694;6;0;0;0;0;0;0;0;0;0;2,428177525
695;6;0;0;0;0;0;0;0;0;0;2,428177525
696;6;0;0;0;0;0;0;0;0;0;2,428177525
697;6;0;0;0;0;0;0;0;0;0;2,428177525
698;6;0;0;0;0;0;0;0;0;0;2,428177525
699;6;0;0;0;0;0;0;0;0;0;2,428177525
700;7;0;0;0;0;0;0;0;0;0;2,428177525
701;7;0;0;0;0;0;0;0;0;0;2,428177525
702;7;0;0;0;0;0;0;0;0;0;0
703;7;0;0;0;0;0;0;0;0;0;0