﻿;;Population;Emissions GES;Emissions par habitant;Proportion des émissions;Pop échelle différente;Numéro début;
Am. Nord 13,9%;Am. Nord;348 971 665;7 371;21,12196088;13,9%;35;1;Am. Nord 13,9%
Japon, Corée du Sud, Australie et Nouvelle Zélande 5,7%;Japon, Corée du Sud, Australie et Nouvelle Zélande;204 702 284;2 988;14,59517563;5,7%;20;36;Japon, Corée du Sud, Australie et Nouvelle Zélande 5,7%
Europe et ex URSS hors UE 8,2%;Europe et ex URSS hors UE;306 162 046;4 323;14,11931348;8,2%;31;56;Europe et ex URSS hors UE 8,2%
Amérique centrale et du Sud 10,9%;Amérique centrale et du Sud;608 274 060;5 756;9,463605213;10,9%;61;87;Amérique centrale et du Sud 10,9%
Chine 24,3%;Chine;1 358 406 383;12 841;9,452890192;24,3%;136;148;Chine 24,3%
UE 28 8,9%;UE 28;505 444 638;4 714;9,327207407;8,9%;51;284;UE 28 8,9%
Moyen-orient 4,6%;Moyen-orient;295 331 175;2 454;8,308114622;4,6%;30;335;Moyen-orient 4,6%
Afrique 10,8%;Afrique;1 070 922 457;5 733;5,353751274;10,8%;107;365;Afrique 10,8%
Autres Asie et Océanie 6,9%;Autres Asie et Océanie;1 059 621 534;3 670;3,463899343;6,9%;106;472;Autres Asie et Océanie 6,9%
Inde 5,7%;Inde;1 236 686 732;3 003;2,428177525;5,7%;124;578;Inde 5,7%
;;;;;;;;
;Total;6 994 522 974;52 854;;;;;